%YAML 1.1
%TAG !u! tag:unity3d.com,2011:
--- !u!1 &1104203621163685918
GameObject:
  m_ObjectHideFlags: 0
  m_CorrespondingSourceObject: {fileID: 0}
  m_PrefabInstance: {fileID: 0}
  m_PrefabAsset: {fileID: 0}
  serializedVersion: 6
  m_Component:
  - component: {fileID: 1104203621163685916}
  - component: {fileID: 1104203621163685919}
  m_Layer: 0
  m_Name: PRE_Network_GameManager
  m_TagString: Untagged
  m_Icon: {fileID: 0}
  m_NavMeshLayer: 0
  m_StaticEditorFlags: 0
  m_IsActive: 1
--- !u!4 &1104203621163685916
Transform:
  m_ObjectHideFlags: 0
  m_CorrespondingSourceObject: {fileID: 0}
  m_PrefabInstance: {fileID: 0}
  m_PrefabAsset: {fileID: 0}
  m_GameObject: {fileID: 1104203621163685918}
  m_LocalRotation: {x: 0, y: 0, z: 0, w: 1}
  m_LocalPosition: {x: 0.12641239, y: -1.2926269, z: 0.48818445}
  m_LocalScale: {x: 1, y: 1, z: 1}
  m_Children: []
  m_Father: {fileID: 0}
  m_RootOrder: 0
  m_LocalEulerAnglesHint: {x: 0, y: 0, z: 0}
--- !u!114 &1104203621163685919
MonoBehaviour:
  m_ObjectHideFlags: 0
  m_CorrespondingSourceObject: {fileID: 0}
  m_PrefabInstance: {fileID: 0}
  m_PrefabAsset: {fileID: 0}
  m_GameObject: {fileID: 1104203621163685918}
  m_Enabled: 1
  m_EditorHideFlags: 0
  m_Script: {fileID: 11500000, guid: 66c252e0a5e4df244ada535b694c26de, type: 3}
  m_Name: 
  m_EditorClassIdentifier: 
  playerRig: {fileID: 0}
  gameRig: {fileID: 0}
  worldManager: {fileID: 0}
  newColor: {r: 0, g: 0, b: 0, a: 0}
  worldColor: {r: 0, g: 0, b: 0, a: 0}
  worldColorSecondary: {r: 0, g: 0, b: 0, a: 0}
  debugRig: {fileID: 1607298352030973219, guid: 92ccf1aa4af459a4ca29f4306f71491e,
    type: 3}
  swordsRig: {fileID: 1968723587372670465, guid: 9e37738e64836a946a8f5cc971c7dad9,
    type: 3}
  virusRig: {fileID: 902855936549521510, guid: 16ef0433f873a7e4aa20d6ed7d4d410e, type: 3}
  bikesRig: {fileID: 4247700776830436231, guid: 80d80cf4e9fb2c84785357b8af186a72,
    type: 3}
  mechRig: {fileID: 445556047806031942, guid: 5c3b827deee1b4f4aa0ead732a85af74, type: 3}
  launcherScene: {fileID: 102900000, guid: 648a69bbeb853cd4584f50ce585220fa, type: 3}
  homeScene: {fileID: 102900000, guid: 0da8d9a2c29b5834085709a2e730fe36, type: 3}
  swordsScene: {fileID: 102900000, guid: 53bf669f3444efe4f88bd45c99d3da8e, type: 3}
  virusScene: {fileID: 102900000, guid: bffc0b5ab696b684598e031260dcd8e7, type: 3}
  mechScene: {fileID: 102900000, guid: ed9d6e0a0832c464db1f12db34bc7b0e, type: 3}
  bikesScene: {fileID: 102900000, guid: 4122cd8fc51752946a28e146279128fe, type: 3}
  gamemode: 0
  tLimit: 0
  isSpawned: 0
  didLeave: 0
