%YAML 1.1
%TAG !u! tag:unity3d.com,2011:
--- !u!1 &8137405602625562337
GameObject:
  m_ObjectHideFlags: 0
  m_CorrespondingSourceObject: {fileID: 0}
  m_PrefabInstance: {fileID: 0}
  m_PrefabAsset: {fileID: 0}
  serializedVersion: 6
  m_Component:
  - component: {fileID: 4133485199103684581}
  - component: {fileID: 1417491302271540788}
  - component: {fileID: 7271248657100310212}
  - component: {fileID: 5836514249365159651}
  - component: {fileID: -4142702598252058937}
  - component: {fileID: 7847223425720789808}
  m_Layer: 0
  m_Name: 2-SWORDS_1-BLADE_0
  m_TagString: Untagged
  m_Icon: {fileID: 0}
  m_NavMeshLayer: 0
  m_StaticEditorFlags: 0
  m_IsActive: 1
--- !u!4 &4133485199103684581
Transform:
  m_ObjectHideFlags: 0
  m_CorrespondingSourceObject: {fileID: 0}
  m_PrefabInstance: {fileID: 0}
  m_PrefabAsset: {fileID: 0}
  m_GameObject: {fileID: 8137405602625562337}
  m_LocalRotation: {x: 0, y: 0, z: 0, w: 1}
  m_LocalPosition: {x: 0, y: 0, z: 0}
  m_LocalScale: {x: 0.5, y: 0.02, z: 0.02}
  m_Children: []
  m_Father: {fileID: 0}
  m_RootOrder: 0
  m_LocalEulerAnglesHint: {x: 0, y: 0, z: 0}
--- !u!33 &1417491302271540788
MeshFilter:
  m_ObjectHideFlags: 0
  m_CorrespondingSourceObject: {fileID: 0}
  m_PrefabInstance: {fileID: 0}
  m_PrefabAsset: {fileID: 0}
  m_GameObject: {fileID: 8137405602625562337}
  m_Mesh: {fileID: 10202, guid: 0000000000000000e000000000000000, type: 0}
--- !u!23 &7271248657100310212
MeshRenderer:
  m_ObjectHideFlags: 0
  m_CorrespondingSourceObject: {fileID: 0}
  m_PrefabInstance: {fileID: 0}
  m_PrefabAsset: {fileID: 0}
  m_GameObject: {fileID: 8137405602625562337}
  m_Enabled: 1
  m_CastShadows: 1
  m_ReceiveShadows: 1
  m_DynamicOccludee: 1
  m_MotionVectors: 1
  m_LightProbeUsage: 1
  m_ReflectionProbeUsage: 1
  m_RayTracingMode: 2
  m_RenderingLayerMask: 1
  m_RendererPriority: 0
  m_Materials:
  - {fileID: 2100000, guid: db54814afab1ee84288c843fb87cf88f, type: 2}
  m_StaticBatchInfo:
    firstSubMesh: 0
    subMeshCount: 0
  m_StaticBatchRoot: {fileID: 0}
  m_ProbeAnchor: {fileID: 0}
  m_LightProbeVolumeOverride: {fileID: 0}
  m_ScaleInLightmap: 1
  m_ReceiveGI: 1
  m_PreserveUVs: 0
  m_IgnoreNormalsForChartDetection: 0
  m_ImportantGI: 0
  m_StitchLightmapSeams: 1
  m_SelectedEditorRenderState: 3
  m_MinimumChartSize: 4
  m_AutoUVMaxDistance: 0.5
  m_AutoUVMaxAngle: 89
  m_LightmapParameters: {fileID: 0}
  m_SortingLayerID: 0
  m_SortingLayer: 0
  m_SortingOrder: 0
--- !u!114 &5836514249365159651
MonoBehaviour:
  m_ObjectHideFlags: 0
  m_CorrespondingSourceObject: {fileID: 0}
  m_PrefabInstance: {fileID: 0}
  m_PrefabAsset: {fileID: 0}
  m_GameObject: {fileID: 8137405602625562337}
  m_Enabled: 1
  m_EditorHideFlags: 0
  m_Script: {fileID: 11500000, guid: 47f233e4c5d6f4aa6a1618016c2233f3, type: 3}
  m_Name: 
  m_EditorClassIdentifier: 
  profile: {fileID: 0}
  profileSync: 0
  target: {fileID: 4133485199103684581}
  active: 1
  executeInEditMode: 0
  ignoreFrames: 0
  duration: 0.25
  continuous: 1
  smooth: 1
  checkWorldPosition: 0
  minDistance: 0.1
  worldPositionRelativeOption: 0
  worldPositionRelativeTransform: {fileID: 0}
  checkScreenPosition: 1
  minPixelDistance: 10
  stepsBufferSize: 2048
  maxStepsPerFrame: 60
  checkTime: 0
  timeInterval: 1
  checkCollisions: 0
  orientToSurface: 1
  ground: 0
  surfaceOffset: 0.05
  collisionLayerMask:
    serializedVersion: 2
    m_Bits: 4294967295
  drawBehind: 1
  cullMode: 2
  subMeshMask: -1
  colorOverTime:
    serializedVersion: 2
    key0: {r: 1, g: 1, b: 1, a: 1}
    key1: {r: 0, g: 0, b: 0, a: 1}
    key2: {r: 0, g: 0, b: 0, a: 0}
    key3: {r: 0, g: 0, b: 0, a: 0}
    key4: {r: 0, g: 0, b: 0, a: 0}
    key5: {r: 0, g: 0, b: 0, a: 0}
    key6: {r: 0, g: 0, b: 0, a: 0}
    key7: {r: 0, g: 0, b: 0, a: 0}
    ctime0: 0
    ctime1: 65535
    ctime2: 65535
    ctime3: 0
    ctime4: 0
    ctime5: 0
    ctime6: 0
    ctime7: 0
    atime0: 0
    atime1: 65535
    atime2: 0
    atime3: 0
    atime4: 0
    atime5: 0
    atime6: 0
    atime7: 0
    m_Mode: 0
    m_NumColorKeys: 2
    m_NumAlphaKeys: 2
  colorSequence: 0
  color: {r: 0.7082372, g: 1, b: 0, a: 1}
  colorCycleDuration: 3
  pingPongSpeed: 1
  colorStartPalette:
    serializedVersion: 2
    key0: {r: 1, g: 0, b: 0, a: 1}
    key1: {r: 0, g: 1, b: 0, a: 1}
    key2: {r: 0, g: 0, b: 1, a: 0}
    key3: {r: 0, g: 0, b: 0, a: 0}
    key4: {r: 0, g: 0, b: 0, a: 0}
    key5: {r: 0, g: 0, b: 0, a: 0}
    key6: {r: 0, g: 0, b: 0, a: 0}
    key7: {r: 0, g: 0, b: 0, a: 0}
    ctime0: 0
    ctime1: 32768
    ctime2: 65535
    ctime3: 0
    ctime4: 0
    ctime5: 0
    ctime6: 0
    ctime7: 0
    atime0: 0
    atime1: 65535
    atime2: 0
    atime3: 0
    atime4: 0
    atime5: 0
    atime6: 0
    atime7: 0
    m_Mode: 0
    m_NumColorKeys: 3
    m_NumAlphaKeys: 2
  cam: {fileID: 0}
  effect: 2
  texture: {fileID: 0}
  scale: {x: 1, y: 1, z: 1}
  scaleStartRandomMin: {x: 1, y: 1, z: 1}
  scaleStartRandomMax: {x: 1, y: 1, z: 1}
  scaleOverTime:
    serializedVersion: 2
    m_Curve:
    - serializedVersion: 3
      time: 0
      value: 1
      inSlope: 0
      outSlope: 0
      tangentMode: 0
      weightedMode: 0
      inWeight: 0
      outWeight: 0
    - serializedVersion: 3
      time: 1
      value: 1
      inSlope: 0
      outSlope: 0
      tangentMode: 0
      weightedMode: 0
      inWeight: 0
      outWeight: 0
    m_PreInfinity: 2
    m_PostInfinity: 2
    m_RotationOrder: 4
  scaleUniform: 0
  localPositionRandomMin: {x: 0, y: 0, z: 0}
  localPositionRandomMax: {x: 0, y: 0, z: 0}
  laserBandWidth: 0.1
  laserIntensity: 20
  laserFlash: 0.2
  animationStates: 
  lookTarget: {fileID: 0}
  lookToCamera: 1
  textureCutOff: 0.25
  normalThreshold: 0.3
  useLastAnimationState: 0
  maxBatches: 50
--- !u!114 &-4142702598252058937
MonoBehaviour:
  m_ObjectHideFlags: 0
  m_CorrespondingSourceObject: {fileID: 0}
  m_PrefabInstance: {fileID: 0}
  m_PrefabAsset: {fileID: 0}
  m_GameObject: {fileID: 8137405602625562337}
  m_Enabled: 1
  m_EditorHideFlags: 0
  m_Script: {fileID: 11500000, guid: 27d03edc81062bd43b31d3fa871a13db, type: 3}
  m_Name: 
  m_EditorClassIdentifier: 
  trail: {fileID: 5836514249365159651}
  model: {fileID: 7847223425720789808}
--- !u!114 &7847223425720789808
MonoBehaviour:
  m_ObjectHideFlags: 0
  m_CorrespondingSourceObject: {fileID: 0}
  m_PrefabInstance: {fileID: 0}
  m_PrefabAsset: {fileID: 0}
  m_GameObject: {fileID: 8137405602625562337}
  m_Enabled: 1
  m_EditorHideFlags: 0
  m_Script: {fileID: 11500000, guid: 63558f4e63e52144688ede72b03866bb, type: 3}
  m_Name: 
  m_EditorClassIdentifier: 
  renderers:
  - {fileID: 7271248657100310212}
  maxDissolve: 0.11
  intensityEffectors: []
  colorLerp: 0
  dissolveLerp: 0
  color: {r: 0, g: 0, b: 0, a: 0}
  intensity: 1.02
  dissolve: 0
