%YAML 1.1
%TAG !u! tag:unity3d.com,2011:
--- !u!319 &31900000
AvatarMask:
  m_ObjectHideFlags: 0
  m_CorrespondingSourceObject: {fileID: 0}
  m_PrefabInstance: {fileID: 0}
  m_PrefabAsset: {fileID: 0}
  m_Name: AVM_Thumb
  m_Mask: 01000000010000000100000001000000010000000100000001000000010000000100000001000000010000000100000001000000
  m_Elements:
  - m_Path: 
    m_Weight: 1
  - m_Path: Armature
    m_Weight: 0
  - m_Path: Armature/Bone
    m_Weight: 0
  - m_Path: Armature/Bone/Bone.001
    m_Weight: 0
  - m_Path: Armature/Bone/Bone.001/Bone.002
    m_Weight: 0
  - m_Path: Armature/Bone/Bone.001/Bone.002/Bone.003
    m_Weight: 0
  - m_Path: Armature/Bone/Bone.001/Bone.002/Bone.003/Bone.003_end
    m_Weight: 0
  - m_Path: Armature/Bone/Bone.004
    m_Weight: 0
  - m_Path: Armature/Bone/Bone.004/Bone.005
    m_Weight: 0
  - m_Path: Armature/Bone/Bone.004/Bone.005/Bone.006
    m_Weight: 0
  - m_Path: Armature/Bone/Bone.004/Bone.005/Bone.006/Bone.006_end
    m_Weight: 0
  - m_Path: Armature/Bone/Bone.007
    m_Weight: 0
  - m_Path: Armature/Bone/Bone.007/Bone.008
    m_Weight: 0
  - m_Path: Armature/Bone/Bone.007/Bone.008/Bone.009
    m_Weight: 0
  - m_Path: Armature/Bone/Bone.007/Bone.008/Bone.009/Bone.009_end
    m_Weight: 0
  - m_Path: Armature/Bone/Bone.010
    m_Weight: 0
  - m_Path: Armature/Bone/Bone.010/Bone.011
    m_Weight: 0
  - m_Path: Armature/Bone/Bone.010/Bone.011/Bone.012
    m_Weight: 0
  - m_Path: Armature/Bone/Bone.010/Bone.011/Bone.012/Bone.012_end
    m_Weight: 0
  - m_Path: Armature/Bone/Bone.013
    m_Weight: 1
  - m_Path: Armature/Bone/Bone.013/Bone.014
    m_Weight: 1
  - m_Path: Armature/Bone/Bone.013/Bone.014/Bone.015
    m_Weight: 1
  - m_Path: Armature/Bone/Bone.013/Bone.014/Bone.015/Bone.016
    m_Weight: 1
  - m_Path: Armature/Bone/Bone.013/Bone.014/Bone.015/Bone.016/Bone.016_end
    m_Weight: 1
  - m_Path: Hand
    m_Weight: 0
