%YAML 1.1
%TAG !u! tag:unity3d.com,2011:
--- !u!21 &2100000
Material:
  serializedVersion: 6
  m_ObjectHideFlags: 0
  m_CorrespondingSourceObject: {fileID: 0}
  m_PrefabInstance: {fileID: 0}
  m_PrefabAsset: {fileID: 0}
  m_Name: MirrorTextured
  m_Shader: {fileID: 4800000, guid: d9390d1e566004b318f201efd2e91d4e, type: 3}
  m_ShaderKeywords: _DISABLEPROBES _GLOSSYREFLECTIONS_OFF _NORMALMAP _NOTFULLMIRROR
    _PARALLAXMAP _SPECULARHIGHLIGHTS_OFF
  m_LightmapFlags: 4
  m_EnableInstancingVariants: 0
  m_DoubleSidedGI: 0
  m_CustomRenderQueue: -1
  stringTagMap: {}
  disabledShaderPasses: []
  m_SavedProperties:
    serializedVersion: 3
    m_TexEnvs:
    - _BumpMap:
        m_Texture: {fileID: 2800000, guid: 17dbefc71e3c4499f807a1018917106d, type: 3}
        m_Scale: {x: 1, y: 1}
        m_Offset: {x: 0, y: 0}
    - _DetailAlbedoMap:
        m_Texture: {fileID: 0}
        m_Scale: {x: 1, y: 1}
        m_Offset: {x: 0, y: 0}
    - _DetailMask:
        m_Texture: {fileID: 0}
        m_Scale: {x: 1, y: 1}
        m_Offset: {x: 0, y: 0}
    - _DetailNormalMap:
        m_Texture: {fileID: 0}
        m_Scale: {x: 1, y: 1}
        m_Offset: {x: 0, y: 0}
    - _EmissionMap:
        m_Texture: {fileID: 0}
        m_Scale: {x: 5, y: 5}
        m_Offset: {x: 0, y: 0}
    - _MainTex:
        m_Texture: {fileID: 2800000, guid: f6f0de9eca49f497da607bb353442488, type: 3}
        m_Scale: {x: 5, y: 5}
        m_Offset: {x: 0, y: 0}
    - _MaskTex:
        m_Texture: {fileID: 2800000, guid: f8257082ac082448382311f6f2e1df9a, type: 3}
        m_Scale: {x: 1, y: 1}
        m_Offset: {x: 0, y: 0}
    - _MetallicGlossMap:
        m_Texture: {fileID: 0}
        m_Scale: {x: 1, y: 1}
        m_Offset: {x: 0, y: 0}
    - _OcclusionMap:
        m_Texture: {fileID: 0}
        m_Scale: {x: 1, y: 1}
        m_Offset: {x: 0, y: 0}
    - _ParallaxMap:
        m_Texture: {fileID: 2800000, guid: 36518a244a60749e0a39646614cc1839, type: 3}
        m_Scale: {x: 1, y: 1}
        m_Offset: {x: 0, y: 0}
    - _ReflectionTex:
        m_Texture: {fileID: 0}
        m_Scale: {x: 1, y: 1}
        m_Offset: {x: 0, y: 0}
    - _ReflectionTexDepth:
        m_Texture: {fileID: 0}
        m_Scale: {x: 1, y: 1}
        m_Offset: {x: 0, y: 0}
    - _ReflectionTexOther:
        m_Texture: {fileID: 0}
        m_Scale: {x: 1, y: 1}
        m_Offset: {x: 0, y: 0}
    - _ReflectionTexOtherDepth:
        m_Texture: {fileID: 0}
        m_Scale: {x: 1, y: 1}
        m_Offset: {x: 0, y: 0}
    - _RefractionTex:
        m_Texture: {fileID: 0}
        m_Scale: {x: 1, y: 1}
        m_Offset: {x: 0, y: 0}
    - _RippleTex:
        m_Texture: {fileID: 0}
        m_Scale: {x: 1, y: 1}
        m_Offset: {x: 0, y: 0}
    - _WaveNoiseTex:
        m_Texture: {fileID: 2800000, guid: e755a0cfcff104a70966f20ad9c58742, type: 3}
        m_Scale: {x: 1, y: 1}
        m_Offset: {x: 0, y: 0}
    m_Floats:
    - _BumpScale: 1
    - _Cutoff: 0.5
    - _DepthBlur: 1
    - _DepthCutoff: 0.8
    - _DetailNormalMapScale: 1
    - _DeviceType: 0
    - _DstBlend: 0
    - _EnableDepth: -1
    - _EnableDepthBlur: -1
    - _EnableMask: 1
    - _EnableRipple: -1
    - _EnableSimpleDepth: -1
    - _EnableWave: 1
    - _FarClip: 1000
    - _GlossMapScale: 1
    - _Glossiness: 0.864
    - _GlossyReflections: 0
    - _LODLevel: 0
    - _MaskCutoff: 0.135
    - _MaskEdgeDarkness: 1
    - _Metallic: 0
    - _MixBlackColor: 0
    - _Mode: 0
    - _NearClip: 0.3
    - _OcclusionStrength: 1
    - _Parallax: 0.08
    - _ReflectionIntensity: 1
    - _ReflectionLight: 1
    - _ReflectionRefraction: 0
    - _RippleDensity: 1
    - _RippleIntensity: 0.11
    - _RippleRefraction: 0.02
    - _RippleSize: 2
    - _RippleSpeed: 0.3
    - _SimpleDepthCutoff: 0.8
    - _SmoothnessTextureChannel: 0
    - _SpecularHighlights: 0
    - _SrcBlend: 1
    - _UVSec: 0
    - _WaveDistortion: 0.08
    - _WaveSize: 10.6
    - _WaveSpeed: 0.005
    - _WetLevel: 0
    - _WorkType: 1
    - _ZWrite: 1
    m_Colors:
    - _Color: {r: 1, g: 1, b: 1, a: 1}
    - _EmissionColor: {r: 0, g: 0, b: 0, a: 1}
    - _MaskTiling: {r: 2.82, g: 5, b: 1, a: 1}
